{
  "project_info": {
    "project_number": "853515369645",
    "firebase_url": "https://student-rollup.firebaseio.com",
    "project_id": "student-rollup",
    "storage_bucket": "student-rollup.appspot.com"
  },
  "client": [
    {
      "client_info": {
        "mobilesdk_app_id": "1:853515369645:android:7591fd0cff592a87",
        "android_client_info": {
          "package_name": "com.example.a1437.TestView"
        }
      },
      "oauth_client": [
        {
          "client_id": "853515369645-g6lbcje9q6ulqg9qv4mb6t63vte08d53.apps.googleusercontent.com",
          "client_type": 1,
          "android_info": {
            "package_name": "com.example.a1437.TestView",
            "certificate_hash": "dac814adefb16c4079cd3da04820794aeda5ef6c"
          }
        },
        {
          "client_id": "853515369645-ubfc29r9k2mqniur4dcv7g3esjrnupbn.apps.googleusercontent.com",
          "client_type": 3
        }
      ],
      "api_key": [
        {
          "current_key": "AIzaSyDDzHTEBrBcYb8WcYhLUJ01zgmc-rPs2D0"
        }
      ],
      "services": {
        "analytics_service": {
          "status": 1
        },
        "appinvite_service": {
          "status": 2,
          "other_platform_oauth_client": [
            {
              "client_id": "853515369645-ubfc29r9k2mqniur4dcv7g3esjrnupbn.apps.googleusercontent.com",
              "client_type": 3
            },
            {
              "client_id": "853515369645-sqrd7a8agkg18cq8bos5kfplm5kn3qav.apps.googleusercontent.com",
              "client_type": 2,
              "ios_info": {
                "bundle_id": "tam.com.DOAN-iOS-"
              }
            }
          ]
        },
        "ads_service": {
          "status": 2
        }
      }
    },
    {
      "client_info": {
        "mobilesdk_app_id": "1:853515369645:android:4d90f3c7edc1e729",
        "android_client_info": {
          "package_name": "com.example.a1437.abcd"
        }
      },
      "oauth_client": [
        {
          "client_id": "853515369645-7uoeibrsfgd9u1j4tkd39qq4u9a5ofr6.apps.googleusercontent.com",
          "client_type": 1,
          "android_info": {
            "package_name": "com.example.a1437.abcd",
            "certificate_hash": "dac814adefb16c4079cd3da04820794aeda5ef6c"
          }
        },
        {
          "client_id": "853515369645-ubfc29r9k2mqniur4dcv7g3esjrnupbn.apps.googleusercontent.com",
          "client_type": 3
        }
      ],
      "api_key": [
        {
          "current_key": "AIzaSyDDzHTEBrBcYb8WcYhLUJ01zgmc-rPs2D0"
        }
      ],
      "services": {
        "analytics_service": {
          "status": 1
        },
        "appinvite_service": {
          "status": 2,
          "other_platform_oauth_client": [
            {
              "client_id": "853515369645-ubfc29r9k2mqniur4dcv7g3esjrnupbn.apps.googleusercontent.com",
              "client_type": 3
            },
            {
              "client_id": "853515369645-sqrd7a8agkg18cq8bos5kfplm5kn3qav.apps.googleusercontent.com",
              "client_type": 2,
              "ios_info": {
                "bundle_id": "tam.com.DOAN-iOS-"
              }
            }
          ]
        },
        "ads_service": {
          "status": 2
        }
      }
    },
    {
      "client_info": {
        "mobilesdk_app_id": "1:853515369645:android:5cfa192b787be78d",
        "android_client_info": {
          "package_name": "com.example.a1437.myapplication"
        }
      },
      "oauth_client": [
        {
          "client_id": "853515369645-ubfc29r9k2mqniur4dcv7g3esjrnupbn.apps.googleusercontent.com",
          "client_type": 3
        }
      ],
      "api_key": [
        {
          "current_key": "AIzaSyDDzHTEBrBcYb8WcYhLUJ01zgmc-rPs2D0"
        }
      ],
      "services": {
        "analytics_service": {
          "status": 1
        },
        "appinvite_service": {
          "status": 1,
          "other_platform_oauth_client": []
        },
        "ads_service": {
          "status": 2
        }
      }
    },
    {
      "client_info": {
        "mobilesdk_app_id": "1:853515369645:android:073beea6a799520c",
        "android_client_info": {
          "package_name": "com.example.a1437.sinhviendihoc"
        }
      },
      "oauth_client": [
        {
          "client_id": "853515369645-89n12v3rk2fs8hlk3vqmspf285ej06e7.apps.googleusercontent.com",
          "client_type": 1,
          "android_info": {
            "package_name": "com.example.a1437.sinhviendihoc",
            "certificate_hash": "dac814adefb16c4079cd3da04820794aeda5ef6c"
          }
        },
        {
          "client_id": "853515369645-ubfc29r9k2mqniur4dcv7g3esjrnupbn.apps.googleusercontent.com",
          "client_type": 3
        }
      ],
      "api_key": [
        {
          "current_key": "AIzaSyDDzHTEBrBcYb8WcYhLUJ01zgmc-rPs2D0"
        }
      ],
      "services": {
        "analytics_service": {
          "status": 1
        },
        "appinvite_service": {
          "status": 2,
          "other_platform_oauth_client": [
            {
              "client_id": "853515369645-ubfc29r9k2mqniur4dcv7g3esjrnupbn.apps.googleusercontent.com",
              "client_type": 3
            },
            {
              "client_id": "853515369645-sqrd7a8agkg18cq8bos5kfplm5kn3qav.apps.googleusercontent.com",
              "client_type": 2,
              "ios_info": {
                "bundle_id": "tam.com.DOAN-iOS-"
              }
            }
          ]
        },
        "ads_service": {
          "status": 2
        }
      }
    },
    {
      "client_info": {
        "mobilesdk_app_id": "1:853515369645:android:fe9a28c395b742b8",
        "android_client_info": {
          "package_name": "com.example.a1437.studentrollup"
        }
      },
      "oauth_client": [
        {
          "client_id": "853515369645-uh0u0eru06a058f1tmnjbeail2ro6mml.apps.googleusercontent.com",
          "client_type": 1,
          "android_info": {
            "package_name": "com.example.a1437.studentrollup",
            "certificate_hash": "dac814adefb16c4079cd3da04820794aeda5ef6c"
          }
        },
        {
          "client_id": "853515369645-ubfc29r9k2mqniur4dcv7g3esjrnupbn.apps.googleusercontent.com",
          "client_type": 3
        }
      ],
      "api_key": [
        {
          "current_key": "AIzaSyDDzHTEBrBcYb8WcYhLUJ01zgmc-rPs2D0"
        }
      ],
      "services": {
        "analytics_service": {
          "status": 1
        },
        "appinvite_service": {
          "status": 2,
          "other_platform_oauth_client": [
            {
              "client_id": "853515369645-ubfc29r9k2mqniur4dcv7g3esjrnupbn.apps.googleusercontent.com",
              "client_type": 3
            },
            {
              "client_id": "853515369645-sqrd7a8agkg18cq8bos5kfplm5kn3qav.apps.googleusercontent.com",
              "client_type": 2,
              "ios_info": {
                "bundle_id": "tam.com.DOAN-iOS-"
              }
            }
          ]
        },
        "ads_service": {
          "status": 2
        }
      }
    },
    {
      "client_info": {
        "mobilesdk_app_id": "1:853515369645:android:6bfdda484b1ac34e",
        "android_client_info": {
          "package_name": "com.example.a1437.xemkqdiemdanh"
        }
      },
      "oauth_client": [
        {
          "client_id": "853515369645-tcmj4lp2hbskdn4sfggp2riv7s041c9m.apps.googleusercontent.com",
          "client_type": 1,
          "android_info": {
            "package_name": "com.example.a1437.xemkqdiemdanh",
            "certificate_hash": "dac814adefb16c4079cd3da04820794aeda5ef6c"
          }
        },
        {
          "client_id": "853515369645-ubfc29r9k2mqniur4dcv7g3esjrnupbn.apps.googleusercontent.com",
          "client_type": 3
        }
      ],
      "api_key": [
        {
          "current_key": "AIzaSyDDzHTEBrBcYb8WcYhLUJ01zgmc-rPs2D0"
        }
      ],
      "services": {
        "analytics_service": {
          "status": 1
        },
        "appinvite_service": {
          "status": 2,
          "other_platform_oauth_client": [
            {
              "client_id": "853515369645-ubfc29r9k2mqniur4dcv7g3esjrnupbn.apps.googleusercontent.com",
              "client_type": 3
            },
            {
              "client_id": "853515369645-sqrd7a8agkg18cq8bos5kfplm5kn3qav.apps.googleusercontent.com",
              "client_type": 2,
              "ios_info": {
                "bundle_id": "tam.com.DOAN-iOS-"
              }
            }
          ]
        },
        "ads_service": {
          "status": 2
        }
      }
    },
    {
      "client_info": {
        "mobilesdk_app_id": "1:853515369645:android:e1fa72c819f9465a",
        "android_client_info": {
          "package_name": "com.example.galaxys4.demo"
        }
      },
      "oauth_client": [
        {
          "client_id": "853515369645-ubfc29r9k2mqniur4dcv7g3esjrnupbn.apps.googleusercontent.com",
          "client_type": 3
        }
      ],
      "api_key": [
        {
          "current_key": "AIzaSyDDzHTEBrBcYb8WcYhLUJ01zgmc-rPs2D0"
        }
      ],
      "services": {
        "analytics_service": {
          "status": 1
        },
        "appinvite_service": {
          "status": 1,
          "other_platform_oauth_client": []
        },
        "ads_service": {
          "status": 2
        }
      }
    },
    {
      "client_info": {
        "mobilesdk_app_id": "1:853515369645:android:9e4b4bcf9198c708",
        "android_client_info": {
          "package_name": "com.example.nguyen.student_360"
        }
      },
      "oauth_client": [
        {
          "client_id": "853515369645-hd7ep0cfba837fds2atmgm8bta4d9bbs.apps.googleusercontent.com",
          "client_type": 1,
          "android_info": {
            "package_name": "com.example.nguyen.student_360",
            "certificate_hash": "f904684f167fd632a326d6faa7121805d73a81a9"
          }
        },
        {
          "client_id": "853515369645-ubfc29r9k2mqniur4dcv7g3esjrnupbn.apps.googleusercontent.com",
          "client_type": 3
        }
      ],
      "api_key": [
        {
          "current_key": "AIzaSyDDzHTEBrBcYb8WcYhLUJ01zgmc-rPs2D0"
        }
      ],
      "services": {
        "analytics_service": {
          "status": 1
        },
        "appinvite_service": {
          "status": 2,
          "other_platform_oauth_client": [
            {
              "client_id": "853515369645-ubfc29r9k2mqniur4dcv7g3esjrnupbn.apps.googleusercontent.com",
              "client_type": 3
            },
            {
              "client_id": "853515369645-sqrd7a8agkg18cq8bos5kfplm5kn3qav.apps.googleusercontent.com",
              "client_type": 2,
              "ios_info": {
                "bundle_id": "tam.com.DOAN-iOS-"
              }
            }
          ]
        },
        "ads_service": {
          "status": 2
        }
      }
    },
    {
      "client_info": {
        "mobilesdk_app_id": "1:853515369645:android:7c180f3f9f81ac2f",
        "android_client_info": {
          "package_name": "com.sourcey.appcaptone"
        }
      },
      "oauth_client": [
        {
          "client_id": "853515369645-ubfc29r9k2mqniur4dcv7g3esjrnupbn.apps.googleusercontent.com",
          "client_type": 3
        }
      ],
      "api_key": [
        {
          "current_key": "AIzaSyDDzHTEBrBcYb8WcYhLUJ01zgmc-rPs2D0"
        }
      ],
      "services": {
        "analytics_service": {
          "status": 1
        },
        "appinvite_service": {
          "status": 1,
          "other_platform_oauth_client": []
        },
        "ads_service": {
          "status": 2
        }
      }
    }
  ],
  "configuration_version": "1"
}